{
	"@class": "org.apereo.cas.services.RegexRegisteredService",
	"serviceId" : "^https://dev01.ub.edu.sa:443/",
	"name" : "Dot Net Secured App",
    "description": "This is a Dot Net App that usses the CAS Server for it's authentication",
	"id": 19992,
	"evaluationOrder": 2,
	"attributeReleasePolicy": {
		"@class": "org.apereo.cas.services.ReturnAllowedAttributeReleasePolicy",
		"authorizedToReleaseCredentialPassword": false,
		"authorizedToReleaseProxyGrantingTicket": false,
		"allowedAttributes": [
			"java.util.ArrayList",
			[
				"cn",
				"mail",
				"sn",
				"memberOf"
			]
		]
	}
}
